BIOL 607 Homework 3
…
2c. Use this data frame to get simulated upper quartiles at each sample size 1,000 times (i.e., for 1,000 simulations).

boot_vole_vaso2 <- boot_vole_vaso %>% 
  rowwise(samp_size) %>% #calculate across rows/ for each sample
  #simulate vole_vaso data for sample sizes 5-20, 1000 times
  summarize(boot_quantile=replicate(1000, 
                                    quantile(sample(vole_vaso,
                                           size=samp_size,
                                           replace= TRUE), probs=0.75))) #calculate quantile of values from vole_vaso simulation

boot_vole_vaso2

## # A tibble: 16,000 x 2
## # Groups:   samp_size [16]
##    samp_size boot_quantile
##        <int>         <dbl>
##  1         5            88
##  2         5            96
##  3         5            77
##  4         5            59
##  5         5            40
##  6         5            74
##  7         5            74
##  8         5            74
##  9         5            98
## 10         5            40
## #  with 15,990 more rows
…
