BIOL 607 Homework 4
…
#Note: variable classes did not load in correctly. Make sure to mutate them to the appropriate classes before use
miss_var_summary(pres_polls) #summarizes NA data from large data sets. 

## # A tibble: 38 x 3
##    variable           n_miss pct_miss
##    <chr>               <int>    <dbl>
##  1 seat_name           12134 100     
##  2 tracking             8492  70.0   
##  3 pollster_rating_id      8   0.0659
##  4 sample_size             2   0.0165
##  5 question_id             0   0     
##  6 poll_id                 0   0     
##  7 cycle                   0   0     
##  8 state                   0   0     
##  9 pollster_id             0   0     
## 10 pollster                0   0     
## #  with 28 more rows
…
