BIOL 607 Homework 7
…
## #  5-fold cross-validation 
## # A tibble: 5 x 2
##   splits         id   
##   <list>         <chr>
## 1 <split [24/6]> Fold1
## 2 <split [24/6]> Fold2
## 3 <split [24/6]> Fold3
## 4 <split [24/6]> Fold4
## 5 <split [24/6]> Fold5

#combine each fold with polynomials 1:5
cv_df <- crossing(progesterone_5order_five_fold, poly=1:5)
cv_df

## # A tibble: 25 x 3
##    splits         id     poly
##    <list>         <chr> <int>
##  1 <split [24/6]> Fold1     1
##  2 <split [24/6]> Fold1     2
##  3 <split [24/6]> Fold1     3
##  4 <split [24/6]> Fold1     4
##  5 <split [24/6]> Fold1     5
##  6 <split [24/6]> Fold2     1
##  7 <split [24/6]> Fold2     2
##  8 <split [24/6]> Fold2     3
##  9 <split [24/6]> Fold2     4
## 10 <split [24/6]> Fold2     5
## #  with 15 more rows

#str(cv_df)

B. Now you have splits and a column of coefficients. Use purr::map2() to make a list column of fit models, where you use the splits and data and the polynomials for you poly() call in the model.

model_df <- cv_df %>% #make data frame
  mutate(mods= map2(.x=splits, #for each split
                   .y=poly, #use poly to fit a lm
                   ~lm(progesterone ~ poly(ventilation,.y),
                          data= analysis(.x)))) 
model_df

## # A tibble: 25 x 4
##    splits         id     poly mods  
##    <list>         <chr> <int> <list>
##  1 <split [24/6]> Fold1     1 <lm>  
##  2 <split [24/6]> Fold1     2 <lm>  
##  3 <split [24/6]> Fold1     3 <lm>  
##  4 <split [24/6]> Fold1     4 <lm>  
##  5 <split [24/6]> Fold1     5 <lm>  
##  6 <split [24/6]> Fold2     1 <lm>  
##  7 <split [24/6]> Fold2     2 <lm>  
##  8 <split [24/6]> Fold2     3 <lm>  
##  9 <split [24/6]> Fold2     4 <lm>  
## 10 <split [24/6]> Fold2     5 <lm>  
## #  with 15 more rows
…
